{
  "firstPriorityPackages": [
    "osf.modules.elm",
    "osf.modules.elm.structures",
    "osf.objects.annotations",
    "osf.modules.elm.cache",
    "osf.modules.elm.annotations"
  ],
  "generalPackages": [
    "java.lang",
    "java.util",
    "javax.validation.constraints",
    "java.time"
  ],
  "typeToPackageTranslation": {
    "string": "java.lang.String",
    "TimeInstant": "java.time.Instant"
  }
}
